{
    "name": "Hello World Bitbucket",
    "description": "This is an test example in bitbucket",
    "repository": "https://bitbucket.org/rabingaire/test",
    "logo": "https://webneel.com/sites/default/files/images/blog/thumb-60.jpg",
    "env": [
        {
            "key": "APP_NAME",
            "description": "hello world",
            "value": "hello",
            "required": true
        },
        {
            "key": "APP_VERSION",
            "description": "hello world"
        }
    ]
}